…
## Usage

For some ideas on getting started with analyzing these texts, see [*Text Mining with R* by Julia Silge and David Robinson](https://www.tidytextmining.com/), or Julia Silge's [blog post on sentiment analysis of Jane Austen's novels](https://juliasilge.com/blog/if-i-loved-nlp-less/). For help within R, try `?quran_ar` or similar for getting started with the datasets.

Here's how to do some basic data manipulation with the data:

``` r
library(dplyr)
library(quRan)

quran_ar %>% 
  group_by(surah_title_en) %>% 
  summarize(total_ayat = n())
#> # A tibble: 114 x 2
#>    surah_title_en total_ayat
#>    <fct>               <int>
#>  1 Al-Faatiha              7
#>  2 Al-Baqara             286
#>  3 Aal-i-Imraan          200
#>  4 An-Nisaa              176
#>  5 Al-Maaida             120
#>  6 Al-An'aam             165
#>  7 Al-A'raaf             206
#>  8 Al-Anfaal              75
#>  9 At-Tawba              129
#> 10 Yunus                 109
#> # ... with 104 more rows
…
